{
  "content://Madisch A et al. Aliment Pharmacol Ther 2004;19:(3):271-9. Study funded by Steigerwald Arzneimittelwerk GmbH, Darmstadt, Germany": {
    "referenceKey": "ref_1",
    "referenceId": 1,
    "allowDistribution": true
  },
  "content://Von Arnim U et al. Am J Gastroenterol 2007;102(6):1268-75. Study funded Steigerwald Arzneimittelwerk GmbH, Darmstadt, Germany": {
    "referenceKey": "ref_2",
    "referenceId": 2,
    "allowDistribution": true
  },
  "content://Ottillinger, Bertram, et al. \"STW 5 (Iberogast&reg;)-a safe and effective standard in the treatment of functional gastrointestinal disorders.\" Wiener Medizinische Wochenschrift 163.3-4 (2013): 65-72.": {
    "referenceKey": "ref_3",
    "referenceId": 3,
    "allowDistribution": true
  },  
  "content://Abdel-Aziz, Heba, et al. \"Evaluating the multitarget effects of combinations through multistep clustering of pharmacological data: the example of the commercial preparation iberogast.\" Planta medica 83.14/15 (2017): 1130-1140.": {
    "referenceKey": "ref_4",
    "referenceId": 4,
    "allowDistribution": true
  },  
  "content://WHO Monographs on Medicinal Plants Commonly Used in the Newly Independent States (NIS). 2010. Accessed on 12 Feb 2019 at: http://apps.who.int/medicinedocs/en/m/abstract/Js17534en/": {
    "referenceKey": "ref_5",
    "referenceId": 5,
    "allowDistribution": true
  },  
  "content://Mahboubi, Mohaddese. \"Caraway as Important Medicinal Plants in Management of Diseases.\" Natural products and bioprospecting (2018): 1-11.": {
    "referenceKey": "ref_6",
    "referenceId": 6,
    "allowDistribution": true
  },  
  "content://Wagner, H. \"Multitarget therapy-the future of treatment for more than just functional dyspeps ia.\" Phytomedicine 13 (2006): 122-129. ": {
    "referenceKey": "ref_7",
    "referenceId": 7,
    "allowDistribution": true
  },  
  "content://Raedsch, Richard, et al. \"Early onset of efficacy in patients with functional and motility-related gastrointestinal disorders.\" Wiener Medizinische Wochenschrift 168.3-4 (2018): 89-98 . . Study funded Steigerwald Arzneimittelwerk, GmbH": {
    "referenceKey": "ref_8",
    "referenceId": 8,
    "allowDistribution": true
  },  
  "content://Madisch, Ahmed, et al. \"Treatment of irritable bowel syndrome with herbal preparations: results of a double-blind, randomized, placebo-controlled, multi-centre trial.\" Alimentary pharmacology & therapeutics 19.3 (2004): 271-279. Study funded by Steigerwald Arzneimittelwerk GmbH, Darmstadt, Germany ": {
    "referenceKey": "ref_9",
    "referenceId": 9,
    "allowDistribution": true
  },  
  "content://Von Arnim, Ulrike, et al. \"STW 5, a phytopharmacon for patients with functional dyspepsia: results of a multicenter, placebo-controlled double-blind study.\" Am J Gastroenterol 2007;102(6):1268-75. Study funded by Steigerwald Arzneimittelwerk GmbH, Darmstadt, Germany ": {
    "referenceKey": "ref_10",
    "referenceId": 10,
    "allowDistribution": true
  },  
  "content://Ottillinger, Bertram, et al. \"STW 5 (Iberogast&reg;)-a safe and effective standard in the treatment of functional gastrointestinal disorders.\" Wiener Medizinische Wochenschrift 163.3-4 (2013): 65-72. ": {
    "referenceKey": "ref_11",
    "referenceId": 11,
    "allowDistribution": true
  },  
  "content://Kroll, U., and C. Cordes. \"Pharmaceutical prerequisites for a multi-target therapy.\" Phytomedicine 13 (2006): 12-19. Funded by Steigerwald Arzneimittelwerk GmbH, Darmstadt, Germany ": {
    "referenceKey": "ref_12",
    "referenceId": 12,
    "allowDistribution": true
  },  
  "content://Allescher, Hans-Dieter, and Heba Abdel-Aziz. \"Mechanism of action of STW 5 in functional dyspepsia and ibs: the origin of multi-target.\" Digestive Diseases 35.S1 (2017): 18-24. Funded by Steigerwald Arzneimittelwerk GmbH, Darmstadt, Germany": {
    "referenceKey": "ref_13",
    "referenceId": 13,
    "allowDistribution": true
  },  
  "content://Madisch, Ahmed, et al. \"M1803 Herbal Preparation STW 5 Significantly Improved Concomitant Reflux Symptoms in Patients with Functional Dyspepsia-a Subgroup Analysis of Placebo-Controlled Trials.\" Gastroenterology 134.4 (2008): A-422.": {
    "referenceKey": "ref_14",
    "referenceId": 14,
    "allowDistribution": true
  },  
  "content://Simmen, U., et al. \"Binding of STW 5 (Iberogast&reg;) and its components to intestinal 5-HT, muscarinic M3, and opioid receptors.\" Phytomedicine 13 (2006): 51-55.": {
    "referenceKey": "ref_15",
    "referenceId": 15,
    "allowDistribution": true
  },  
  "shared/video/Bayer_Iberogast_FD_MoA_Short_Version_EN_wo subtitle.mp4": {
    "title": "Bayer Iberogast FD MoA Short Version EN",
    "referenceKey": "movie_1",
    "tags": "video mp4 movie",
    "allowDistribution": true
  }
}
