{
    "slides": {
        "start_slide": {
            "id": "start_slide",
            "name": "Start slide",
            "files": {
                "templates": [
                    "slides/start_slide/start_slide.html"
                ],
                "scripts": [
                    "slides/start_slide/start_slide.js"
                ],
                "styles": [
                    "slides/start_slide/start_slide.css"
                ]
            }
        },
        "master_detailer_page_01": {
            "id": "master_detailer_page_01",
            "name": "Master Detailer page 01",
            "files": {
                "templates": [
                    "slides/master_detailer_page_01/master_detailer_page_01.html"
                ],
                "scripts": [
                    "slides/master_detailer_page_01/master_detailer_page_01.js"
                ],
                "styles": [
                    "slides/master_detailer_page_01/master_detailer_page_01.css"
                ]
            }
        },
        "master_detailer_page_02": {
            "id": "master_detailer_page_02",
            "name": "Master Detailer page 02",
            "files": {
                "templates": [
                    "slides/master_detailer_page_02/master_detailer_page_02.html"
                ],
                "scripts": [
                    "slides/master_detailer_page_02/master_detailer_page_02.js"
                ],
                "styles": [
                    "slides/master_detailer_page_02/master_detailer_page_02.css"
                ]
            }
        },
        "master_detailer_page_03": {
            "id": "master_detailer_page_03",
            "name": "Master Detailer page 03",
            "files": {
                "templates": [
                    "slides/master_detailer_page_03/master_detailer_page_03.html"
                ],
                "scripts": [
                    "slides/master_detailer_page_03/master_detailer_page_03.js"
                ],
                "styles": [
                    "slides/master_detailer_page_03/master_detailer_page_03.css"
                ]
            }
        },
        "master_detailer_page_04_01": {
            "id": "master_detailer_page_04_01",
            "name": "Master Detailer page 04-01",
            "files": {
                "templates": [
                    "slides/master_detailer_page_04_01/master_detailer_page_04_01.html"
                ],
                "scripts": [
                    "slides/master_detailer_page_04_01/master_detailer_page_04_01.js"
                ],
                "styles": [
                    "slides/master_detailer_page_04_01/master_detailer_page_04_01.css"
                ]
            }
        },
        "master_detailer_page_04_02": {
            "id": "master_detailer_page_04_02",
            "name": "Master Detailer page 04-02",
            "files": {
                "templates": [
                    "slides/master_detailer_page_04_02/master_detailer_page_04_02.html"
                ],
                "scripts": [
                    "slides/master_detailer_page_04_02/master_detailer_page_04_02.js"
                ],
                "styles": [
                    "slides/master_detailer_page_04_02/master_detailer_page_04_02.css"
                ]
            }
        },
        "motility_page_01_01": {
            "id": "motility_page_01_01",
            "name": "Motility page 01-01",
            "files": {
                "templates": [
                    "slides/motility_page_01_01/motility_page_01_01.html"
                ],
                "scripts": [
                    "slides/motility_page_01_01/motility_page_01_01.js"
                ],
                "styles": [
                    "slides/motility_page_01_01/motility_page_01_01.css"
                ]
            }
        },
        "motility_page_01_02": {
            "id": "motility_page_01_02",
            "name": "Motility page 01-02",
            "files": {
                "templates": [
                    "slides/motility_page_01_02/motility_page_01_02.html"
                ],
                "scripts": [
                    "slides/motility_page_01_02/motility_page_01_02.js"
                ],
                "styles": [
                    "slides/motility_page_01_02/motility_page_01_02.css"
                ]
            }
        },
        "motility_page_01_03": {
            "id": "motility_page_01_03",
            "name": "Motility page 01-03",
            "files": {
                "templates": [
                    "slides/motility_page_01_03/motility_page_01_03.html"
                ],
                "scripts": [
                    "slides/motility_page_01_03/motility_page_01_03.js"
                ],
                "styles": [
                    "slides/motility_page_01_03/motility_page_01_03.css"
                ]
            }
        },
        "motility_page_02_01": {
            "id": "motility_page_02_01",
            "name": "Motility page 02-01",
            "files": {
                "templates": [
                    "slides/motility_page_02_01/motility_page_02_01.html"
                ],
                "scripts": [
                    "slides/motility_page_02_01/motility_page_02_01.js"
                ],
                "styles": [
                    "slides/motility_page_02_01/motility_page_02_01.css"
                ]
            }
        },
        "motility_page_02_02": {
            "id": "motility_page_02_02",
            "name": "Motility page 02-02",
            "files": {
                "templates": [
                    "slides/motility_page_02_02/motility_page_02_02.html"
                ],
                "scripts": [
                    "slides/motility_page_02_02/motility_page_02_02.js"
                ],
                "styles": [
                    "slides/motility_page_02_02/motility_page_02_02.css"
                ]
            }
        },
        "secretion_page_01_01": {
            "id": "secretion_page_01_01",
            "name": "Secretion page 01-01",
            "files": {
                "templates": [
                    "slides/secretion_page_01_01/secretion_page_01_01.html"
                ],
                "scripts": [
                    "slides/secretion_page_01_01/secretion_page_01_01.js"
                ],
                "styles": [
                    "slides/secretion_page_01_01/secretion_page_01_01.css"
                ]
            }
        },
        "secretion_page_01_02": {
            "id": "secretion_page_01_02",
            "name": "Secretion page 01-02",
            "files": {
                "templates": [
                    "slides/secretion_page_01_02/secretion_page_01_02.html"
                ],
                "scripts": [
                    "slides/secretion_page_01_02/secretion_page_01_02.js"
                ],
                "styles": [
                    "slides/secretion_page_01_02/secretion_page_01_02.css"
                ]
            }
        },
        "secretion_page_01_03": {
            "id": "secretion_page_01_03",
            "name": "Secretion page 01-03",
            "files": {
                "templates": [
                    "slides/secretion_page_01_03/secretion_page_01_03.html"
                ],
                "scripts": [
                    "slides/secretion_page_01_03/secretion_page_01_03.js"
                ],
                "styles": [
                    "slides/secretion_page_01_03/secretion_page_01_03.css"
                ]
            }
        },
        "secretion_page_02_01": {
            "id": "secretion_page_02_01",
            "name": "Secretion page 02-01",
            "files": {
                "templates": [
                    "slides/secretion_page_02_01/secretion_page_02_01.html"
                ],
                "scripts": [
                    "slides/secretion_page_02_01/secretion_page_02_01.js"
                ],
                "styles": [
                    "slides/secretion_page_02_01/secretion_page_02_01.css"
                ]
            }
        },
        "secretion_page_02_02": {
            "id": "secretion_page_02_02",
            "name": "Secretion page 02-02",
            "files": {
                "templates": [
                    "slides/secretion_page_02_02/secretion_page_02_02.html"
                ],
                "scripts": [
                    "slides/secretion_page_02_02/secretion_page_02_02.js"
                ],
                "styles": [
                    "slides/secretion_page_02_02/secretion_page_02_02.css"
                ]
            }
        },
        "hypersensitivity_page_01_01": {
            "id": "hypersensitivity_page_01_01",
            "name": "Hypersensitivity page 01-01",
            "files": {
                "templates": [
                    "slides/hypersensitivity_page_01_01/hypersensitivity_page_01_01.html"
                ],
                "scripts": [
                    "slides/hypersensitivity_page_01_01/hypersensitivity_page_01_01.js"
                ],
                "styles": [
                    "slides/hypersensitivity_page_01_01/hypersensitivity_page_01_01.css"
                ]
            }
        },
        "hypersensitivity_page_01_02": {
            "id": "hypersensitivity_page_01_02",
            "name": "Hypersensitivity page 01-02",
            "files": {
                "templates": [
                    "slides/hypersensitivity_page_01_02/hypersensitivity_page_01_02.html"
                ],
                "scripts": [
                    "slides/hypersensitivity_page_01_02/hypersensitivity_page_01_02.js"
                ],
                "styles": [
                    "slides/hypersensitivity_page_01_02/hypersensitivity_page_01_02.css"
                ]
            }
        },
        "hypersensitivity_page_01_03": {
            "id": "hypersensitivity_page_01_03",
            "name": "Hypersensitivity page 01-03",
            "files": {
                "templates": [
                    "slides/hypersensitivity_page_01_03/hypersensitivity_page_01_03.html"
                ],
                "scripts": [
                    "slides/hypersensitivity_page_01_03/hypersensitivity_page_01_03.js"
                ],
                "styles": [
                    "slides/hypersensitivity_page_01_03/hypersensitivity_page_01_03.css"
                ]
            }
        },
        "hypersensitivity_page_02_01": {
            "id": "hypersensitivity_page_02_01",
            "name": "Hypersensitivity page 02-01",
            "files": {
                "templates": [
                    "slides/hypersensitivity_page_02_01/hypersensitivity_page_02_01.html"
                ],
                "scripts": [
                    "slides/hypersensitivity_page_02_01/hypersensitivity_page_02_01.js"
                ],
                "styles": [
                    "slides/hypersensitivity_page_02_01/hypersensitivity_page_02_01.css"
                ]
            }
        },
        "hypersensitivity_page_02_02": {
            "id": "hypersensitivity_page_02_02",
            "name": "Hypersensitivity page 02-02",
            "files": {
                "templates": [
                    "slides/hypersensitivity_page_02_02/hypersensitivity_page_02_02.html"
                ],
                "scripts": [
                    "slides/hypersensitivity_page_02_02/hypersensitivity_page_02_02.js"
                ],
                "styles": [
                    "slides/hypersensitivity_page_02_02/hypersensitivity_page_02_02.css"
                ]
            }
        },
        "master_detailer_page_03_01": {
            "id": "master_detailer_page_03_01",
            "name": "Master Detailer page 03-01",
            "files": {
                "templates": [
                    "slides/master_detailer_page_03_01/master_detailer_page_03_01.html"
                ],
                "scripts": [
                    "slides/master_detailer_page_03_01/master_detailer_page_03_01.js"
                ],
                "styles": [
                    "slides/master_detailer_page_03_01/master_detailer_page_03_01.css"
                ]
            }
        },
        "master_detailer_page_03_02": {
            "id": "master_detailer_page_03_02",
            "name": "Master Detailer page 03-02",
            "files": {
                "templates": [
                    "slides/master_detailer_page_03_02/master_detailer_page_03_02.html"
                ],
                "scripts": [
                    "slides/master_detailer_page_03_02/master_detailer_page_03_02.js"
                ],
                "styles": [
                    "slides/master_detailer_page_03_02/master_detailer_page_03_02.css"
                ]
            }
        },
        "references_page": {
            "id": "references_page",
            "name": "References page",
            "files": {
                "templates": [
                    "slides/references_page/references_page.html"
                ],
                "scripts": [
                    "slides/references_page/references_page.js"
                ],
                "styles": [
                    "slides/references_page/references_page.css"
                ]
            }
        }
    },
    "modules": {
        "ag-slide-analytics": {
            "name": "Agnitio Slide Analytics",
            "description": "Save data about the slides visited. Will call ag.submit.slide(data).",
            "files": {
                "scripts": [
                    "modules/ag-slide-analytics/ag-slide-analytics.js"
                ]
            },
            "version": "0.7.0"
        },
        "ag-auto-menu": {
            "name": "Agnitio Auto Menu",
            "description": "Menu that automatically builds.",
            "files": {
                "styles": [
                    "modules/ag-auto-menu/ag-auto-menu.css"
                ],
                "scripts": [
                    "modules/ag-auto-menu/ag-auto-menu.js"
                ]
            },
            "version": "0.8.5"
        },
        "ag-slide-popup": {
            "files": {
                "scripts": [
                    "modules/ag-slide-popup/ag-slide-popup.js"
                ],
                "styles": [
                    "modules/ag-slide-popup/ag-slide-popup.css"
                ]
            }
        },
        "ag-video": {
            "name": "Agnitio Video Module",
            "description": "Wrapper for HTML5 video tag to add states and custom controls",
            "files": {
                "templates": [
                    "modules/ag-video/ag-video.html"
                ],
                "styles": [
                    "modules/ag-video/ag-video.css"
                ],
                "scripts": [
                    "modules/ag-video/ag-video.js"
                ]
            },
            "version": "0.9.6"
        },
        "ag-viewer": {
            "id": "ag-viewer",
            "files": {
                "scripts": [
                    "modules/ag-viewer/ag-viewer.js"
                ],
                "styles": [
                    "modules/ag-viewer/ag-viewer.css"
                ]
            }
        },
        "ag-builder": {
            "id": "ag-builder",
            "files": {
                "scripts": [
                    "modules/ag-builder/ag-builder.js"
                ],
                "styles": [
                    "modules/ag-builder/ag-builder.css"
                ]
            }
        },
        "ap-toolbar": {
            "id": "ap-toolbar",
            "files": {
                "templates": [
                    "modules/ap-toolbar/ap-toolbar.html"
                ],
                "scripts": [
                    "modules/ap-toolbar/ap-toolbar.js"
                ],
                "styles": [
                    "modules/ap-toolbar/ap-toolbar.css"
                ]
            }
        },
        "ap-overview": {
            "id": "ap-overview",
            "files": {
                "templates": [
                    "modules/ap-overview/ap-overview.html"
                ],
                "scripts": [
                    "modules/ap-overview/ap-overview.js"
                ],
                "styles": [
                    "modules/ap-overview/ap-overview.css"
                ]
            }
        },
        "ap-module": {
            "id": "ap-module",
            "files": {
                "templates": [],
                "scripts": [
                    "modules/ap-module/ap-module.js"
                ],
                "styles": []
            }
        },
        "ap-auto-menu-handle": {
            "id": "ap-auto-menu-handle",
            "files": {
                "templates": [],
                "scripts": [
                    "modules/ap-auto-menu-handle/ap-auto-menu-handle.js"
                ],
                "styles": [
                    "modules/ap-auto-menu-handle/ap-auto-menu-handle.css"
                ]
            }
        },
        "ap-custom-collections-storage": {
            "id": "ap-custom-collections-storage",
            "files": {
                "templates": [],
                "scripts": [
                    "modules/ap-custom-collections-storage/ap-custom-collections-storage.js"
                ],
                "styles": []
            }
        },
        "ap-custom-collections-menu": {
            "id": "ap-custom-collections-menu",
            "files": {
                "templates": [
                    "modules/ap-custom-collections-menu/ap-custom-collections-menu.html"
                ],
                "scripts": [
                    "modules/ap-custom-collections-menu/ap-custom-collections-menu.js"
                ],
                "styles": [
                    "modules/ap-custom-collections-menu/ap-custom-collections-menu.css"
                ]
            }
        },
        "ap-custom-collections": {
            "id": "ap-custom-collections",
            "files": {
                "templates": [
                    "modules/ap-custom-collections/ap-custom-collections.html"
                ],
                "scripts": [
                    "modules/ap-custom-collections/ap-custom-collections.js"
                ],
                "styles": [
                    "modules/ap-custom-collections/ap-custom-collections.css"
                ]
            }
        },
        "ap-content-groups": {
            "id": "ap-content-groups",
            "files": {
                "templates": [],
                "scripts": [
                    "modules/ap-content-groups/ap-content-groups.js"
                ],
                "styles": []
            }
        },
        "ap-auto-references": {
            "id": "ap-auto-references",
            "files": {
                "templates": [],
                "scripts": [
                    "modules/ap-auto-references/ap-auto-references.js"
                ],
                "styles": [
                    "modules/ap-auto-references/ap-auto-references.css"
                ]
            }
        },
        "ap-auto-references-popup": {
            "id": "ap-auto-references-popup",
            "files": {
                "templates": [],
                "scripts": [
                    "modules/ap-auto-references-popup/ap-auto-references-popup.js"
                ],
                "styles": [
                    "modules/ap-auto-references-popup/ap-auto-references-popup.css"
                ]
            }
        },
        "ap-auto-side-clip": {
            "id": "ap-auto-side-clip",
            "files": {
                "templates": [],
                "scripts": [
                    "modules/ap-auto-side-clip/ap-auto-side-clip.js"
                ],
                "styles": [
                    "modules/ap-auto-side-clip/ap-auto-side-clip.css"
                ]
            }
        },
        "ap-media-repository": {
            "id": "ap-media-repository",
            "files": {
                "templates": [],
                "scripts": [
                    "modules/ap-media-repository/ap-media-repository.js"
                ],
                "styles": [
                    "modules/ap-media-repository/renderers.css"
                ]
            }
        },
        "ap-back-navigation": {
            "id": "ap-back-navigation",
            "files": {
                "templates": [],
                "scripts": [
                    "modules/ap-back-navigation/ap-back-navigation.js"
                ],
                "styles": []
            }
        },
        "ap-favorite-presentations-buttons": {
            "id": "ap-favorite-presentations-buttons",
            "files": {
                "templates": [
                    "modules/ap-favorite-presentations-buttons/ap-favorite-presentations-buttons.html"
                ],
                "scripts": [
                    "modules/ap-favorite-presentations-buttons/ap-favorite-presentations-buttons.js"
                ],
                "styles": [
                    "modules/ap-favorite-presentations-buttons/ap-favorite-presentations-buttons.css"
                ]
            }
        },
        "ap-media-library": {
            "id": "ap-media-library",
            "files": {
                "templates": [
                    "modules/ap-media-library/ap-media-library.html"
                ],
                "scripts": [
                    "modules/ap-media-library/ap-media-library.js"
                ],
                "styles": [
                    "modules/ap-media-library/ap-media-library.css"
                ]
            }
        },
        "ap-reference-library": {
            "id": "ap-reference-library",
            "files": {
                "templates": [
                    "modules/ap-reference-library/ap-reference-library.html"
                ],
                "scripts": [
                    "modules/ap-reference-library/ap-reference-library.js"
                ],
                "styles": [
                    "modules/ap-reference-library/ap-reference-library.css"
                ]
            }
        },
        "ap-video-library": {
            "id": "ap-video-library",
            "files": {
                "templates": [
                    "modules/ap-video-library/ap-video-library.html"
                ],
                "scripts": [
                    "modules/ap-video-library/ap-video-library.js"
                ],
                "styles": [
                    "modules/ap-video-library/ap-video-library.css"
                ]
            }
        },
        "ap-specific-product-characteristics": {
            "id": "ap-specific-product-characteristics",
            "files": {
                "templates": [],
                "scripts": [
                    "modules/ap-specific-product-characteristics/ap-specific-product-characteristics.js"
                ],
                "styles": []
            }
        },
        "ap-follow-up-mail": {
            "id": "ap-follow-up-mail",
            "files": {
                "templates": [
                    "modules/ap-follow-up-mail/ap-follow-up-mail.html"
                ],
                "scripts": [
                    "modules/ap-follow-up-mail/ap-follow-up-mail.js"
                ],
                "styles": [
                    "modules/ap-follow-up-mail/ap-follow-up-mail.css"
                ]
            }
        },
        "ap-frequently-asked-questions": {
            "id": "ap-frequently-asked-questions",
            "files": {
                "templates": [
                    "modules/ap-frequently-asked-questions/ap-frequently-asked-questions.html"
                ],
                "scripts": [
                    "modules/ap-frequently-asked-questions/ap-frequently-asked-questions.js"
                ],
                "styles": [
                    "modules/ap-frequently-asked-questions/ap-frequently-asked-questions.css"
                ]
            }
        },
        "ap-notepad": {
            "id": "ap-notepad",
            "files": {
                "templates": [
                    "modules/ap-notepad/ap-notepad.html"
                ],
                "scripts": [
                    "modules/ap-notepad/ap-notepad.js"
                ],
                "styles": [
                    "modules/ap-notepad/ap-notepad.css"
                ]
            }
        },
        "ap-slide-indicator": {
            "id": "ap-slide-indicator",
            "files": {
                "templates": [
                    "modules/ap-slide-indicator/ap-slide-indicator.html"
                ],
                "scripts": [
                    "modules/ap-slide-indicator/ap-slide-indicator.js"
                ],
                "styles": [
                    "modules/ap-slide-indicator/ap-slide-indicator.css"
                ]
            }
        },
        "bhc-gpc-number": {
            "id": "bhc-gpc-number",
            "files": {
                "templates": [
                    "modules/bhc-gpc-number/bhc-gpc-number.html"
                ],
                "scripts": [
                    "modules/bhc-gpc-number/bhc-gpc-number.js"
                ],
                "styles": [
                    "modules/bhc-gpc-number/bhc-gpc-number.css"
                ]
            }
        },
        "ah-cleanup": {
            "name": "Anthill Cleanup Module",
            "description": "Clean up slides not in use",
            "type": "global",
            "files": {
                "scripts": [
                    "modules/ah-cleanup/ah-cleanup.js"
                ]
            },
            "version": "0.9.0"
        },
        "ag-overlay": {
            "name": "Agnitio Overlay",
            "type": "universal",
            "description": "Creates an overlay to the presentation.",
            "files": {
                "styles": [
                    "modules/ag-overview/ag-overview.css"
                ],
                "scripts": [
                    "modules/ag-overview/ag-overview.js"
                ]
            },
            "version": "0.5.1"
        },
        "ah-popup-management": {
            "name": "Popup management",
            "type": "global",
            "description": "Management for popups in BHC.",
            "files": {
                "scripts": [
                    "modules/ah-popup-management/ah-popup-management.js"
                ]
            },
            "version": "0.0.1"
        },
        "ah-history": {
            "id": "ah-history",
            "files": {
                "scripts": [
                    "modules/ah-history/ah-history.js"
                ]
            },
            "version": "2.0.1"
        },
        "ah-storage-data": {
            "id": "ah-storage-data",
            "files": {
                "scripts": [
                    "modules/ah-storage-data/ah-storage-data.js"
                ]
            },
            "version": "1.0.1"
        },
        "ah-tab-group": {
            "id": "ah-tab-group",
            "files": {
                "scripts": [
                    "modules/ah-tab-group/ah-tab-group.js",
                    "modules/ah-tab-group/tab-states.js"
                ],
                "styles": [
                    "modules/ah-tab-group/ah-tab-group.css"
                ]
            },
            "version": "0.0.2"
        },
        "ah-tour": {
            "id": "ah-tour",
            "files": {
                "styles": [
                    "modules/ah-tour/tour.css",
                    "modules/ah-tour/custom-popover.css"
                ],
                "scripts": [
                    "modules/ah-tour/ah-tour.js",
                    "modules/ah-tour/tutorial-tour.js"
                ],
                "templates": [
                    "modules/ah-tour/custom-popover.html",
                    "modules/ah-tour/template.html"
                ]
            },
            "version": "0.0.2"
        },
        "ah-tour-configurator": {
            "id": "ah-tour-configurator",
            "files": {
                "scripts": [
                    "modules/ah-tour-configurator/ah-tour-configurator.js",
                    "modules/ah-tour-configurator/tutorial-configurator.js"
                ]
            },
            "version": "0.0.2"
        },
        "ah-tutorial": {
            "id": "ah-tutorial",
            "files": {
                "templates": [
                    "modules/ah-tutorial/tutorial.html"
                ],
                "scripts": [
                    "modules/ah-tutorial/ah-tutorial.js",
                    "modules/ah-tutorial/tutorial.js"
                ],
                "styles": [
                    "modules/ah-tutorial/tutorial.css"
                ]
            },
            "version": "0.0.2"
        },
        "ah-tutorial-controls": {
            "id": "ah-tutorial-controls",
            "files": {
                "scripts": [
                    "modules/ah-tutorial-controls/ah-tutorial-controls.js"
                ],
                "templates": [
                    "modules/ah-tutorial-controls/ah-tutorial-controls.html"
                ],
                "styles": [
                    "modules/ah-tutorial-controls/ah-tutorial-controls.css"
                ]
            },
            "version": "0.0.2"
        }
    },
    "structures": {
        "start": {
            "name": "Home",
            "id": "start",
            "content": [
                "start_slide"
            ],
            "type": "slideshow",
            "shareable": {}
        },
        "master_detailer": {
            "name": "Master Detailer",
            "id": "master_detailer",
            "content": [
                "master_detailer_page_01",
                "master_detailer_page_02",
                "master_detailer_page_03_01",
                "master_detailer_page_03_02",
                "master_detailer_page_04_01",
                "master_detailer_page_04_02"
            ],
            "type": "slideshow",
            "shareable": {}
        },
        "motility": {
            "name": "Motility",
            "id": "motility",
            "content": [
                "motility_page_01_01",
                "motility_page_01_02",
                "motility_page_01_03",
                "motility_page_02_01",
                "motility_page_02_02"
            ],
            "type": "slideshow",
            "shareable": {}
        },
        "secretion": {
            "name": "Secretion",
            "id": "secretion",
            "content": [
                "secretion_page_01_01",
                "secretion_page_01_02",
                "secretion_page_01_03",
                "secretion_page_02_01",
                "secretion_page_02_02"
            ],
            "type": "slideshow",
            "shareable": {}
        },
        "hypersensitivity": {
            "name": "Hypersensitivity",
            "id": "hypersensitivity",
            "content": [
                "hypersensitivity_page_01_01",
                "hypersensitivity_page_01_02",
                "hypersensitivity_page_01_03",
                "hypersensitivity_page_02_01",
                "hypersensitivity_page_02_02"
            ],
            "type": "slideshow",
            "shareable": {}
        },
        "references": {
            "name": "References",
            "id": "references",
            "content": [
                "references_page"
            ],
            "type": "slideshow",
            "shareable": {}
        }
    },
    "storyboard": [
        "iberogast"
    ],
    "storyboards": {
        "iberogast": {
            "content": [
                "start",
                "master_detailer",
                "motility",
                "secretion",
                "hypersensitivity",
                "references"
            ],
            "name": "Iberogast",
            "linear": false,
            "id": "iberogast",
            "type": "collection"
        }
    }
}